Practical Assignment
…
food_served<- thanks%>%
  select(id, starts_with("side"),
         starts_with("pie"),
         starts_with("dessert"))%>%
  select(-side15, -pie13, -dessert12)%>%
  gather(type, value, -id)%>%
  filter(!is.na(value),
         !value %in% c("None", "Other (please specify)"))%>%
  mutate(type=str_remove(type, "\\d+"))

food_served%>%
  count(type, value, sort = TRUE)

## # A tibble: 32 x 3
##    type    value                                n
##    <chr>   <chr>                            <int>
##  1 side    Mashed potatoes                    817
##  2 side    Rolls/biscuits                     766
##  3 pie     Pumpkin                            729
##  4 side    Green beans/green bean casserole   686
##  5 side    Yams/sweet potato casserole        631
##  6 pie     Apple                              514
##  7 side    Corn                               464
##  8 pie     Pecan                              342
##  9 dessert Ice cream                          266
## 10 side    Carrots                            242
## # ... with 22 more rows
…
